LFSR.vcd
$date
	Thu Mar 17 10:09:30 2022
$end
$version
	ModelSim Version 10.5b
$end
$timescale
	1ns
$end

$scope module FSM_tb $end
$var parameter 32 ! CLOCK_PERIOD $end
$var parameter 32 " HALF_PERIOD $end
$var reg 1 # Activate_tb $end
$var reg 1 $ Up_Max_tb $end
$var reg 1 % Dn_Max_tb $end
$var reg 1 & clk_tb $end
$var reg 1 ' rst_tb $end
$var wire 1 ( UP_M_tb $end
$var wire 1 ) DN_M_tb $end
$var wire 1 * output_signals [1] $end
$var wire 1 + output_signals [0] $end
$var wire 1 , UP_Max_tb $end

$scope module DUT $end
$var parameter 2 - IDLE $end
$var parameter 2 . Mv_Up $end
$var parameter 2 / Mv_Dn $end
$var wire 1 0 Activate $end
$var wire 1 , Up_Max $end
$var wire 1 1 Dn_Max $end
$var wire 1 2 clk $end
$var wire 1 3 rst $end
$var reg 1 4 UP_M $end
$var reg 1 5 DN_M $end
$var reg 2 6 current_state [1:0] $end
$var reg 2 7 next_state [1:0] $end
$upscope $end
$upscope $end
$enddefinitions $end
#0
$dumpvars
0#
x$
x%
0&
0'
04
05
b0 6
b0 7
b10100 !
b1010 "
b0 -
b1 .
b10 /
0(
0)
0+
0*
z,
03
02
x1
00
$end
#8
1#
0%
1$
1'
10
01
13
#10
1&
12
#20
0&
02
#28
1%
0$
11
b1 7
14
1(
1+
#30
1&
12
b1 6
#40
0&
02
#50
1&
12
#60
0&
02
#68
0#
0%
1$
00
01
b0 7
04
0(
0+
#70
1&
12
b0 6
#80
0&
02
#88
1#
1%
0$
10
11
b1 7
14
1(
1+
#90
1&
12
b1 6
